…
### データの可視化と問題発見

データの可視化は何のために行うのだろうか。可視化することによって，問題を発見することができ，それに対して 詳細な分析や解釈，解決策を考えることができるからである。ここでは，統計解析ソフトウェア R の ggplot2 というパッ ケージに含まれている diamonds サンプルデータを用いて説明しよう。このデータは，実際に米国で流通したダイアモ ンドのカラット，カット，透明度，大きさ，価格などを含んだ数万件の大きなデータである。 

プログラム
```R
> library(dplyr)
> library(ggplot2)
> diamonds
```

実行結果
```
# A tibble: 53,940 x 10
carat cut color clarity depth table price x y z
<dbl> <or> <ord> <ord> <dbl> <dbl> <int> <dbl> <dbl> <dbl>
 1 0.23 Ide… E SI2 61.5 55 326 3.95 3.98 2.43
 2 0.21 Pre… E SI1 59.8 61 326 3.89 3.84 2.31
 3 0.23 Good E VS1 56.9 65 327 4.05 4.07 2.31
 4 0.290 Pre… I VS2 62.4 58 334 4.2 4.23 2.63
 5 0.31 Good J SI2 63.3 58 335 4.34 4.35 2.75
 6 0.24 Ver… J VVS2 62.8 57 336 3.94 3.96 2.48
 7 0.24 Ver… I VVS1 62.3 57 336 3.95 3.98 2.47
 8 0.26 Ver… H SI1 61.9 55 337 4.07 4.11 2.53
 9 0.22 Fair E VS2 65.1 61 337 3.87 3.78 2.49
10 0.23 Ver… H VS1 59.4 61 338 4 4.05 2.39
# ... with 53,930 more rows
```
…
